{
  "$schema": "https://docs.renovatebot.com/renovate-schema.json",
  "enabledManagers": [
    "gitlabci",
    "pre-commit",
    "regex"
  ],
  "labels": [
    "dependencies"
  ],
  "pre-commit": {
    "fileMatch": [
      ".pre-commit-config.yaml"
    ],
    "commitBody": "changelog: chore"
  },
  "gitlabci": {
    "commitBody": "changelog: ci"
  },
  "regexManagers": [
    {
      "fileMatch": [
        "\\.gitlab-ci\\.yml"
      ],
      "matchStrings": [
        "MOCK_IMAGE: (?<depName>.*?):(?<currentValue>.*?)\\n"
      ],
      "datasourceTemplate": "docker"
    },
    {
      "fileMatch": [
        "\\.gitlab-ci\\.yml"
      ],
      "matchStrings": [
        "QEMU_IMAGE: (?<depName>.*?):(?<currentValue>.*?)\\n"
      ],
      "datasourceTemplate": "docker"
    },
    {
      "fileMatch": [
        "\\.gitlab-ci\\.yml"
      ],
      "matchStrings": [
        "CODACY_VERSION: \"(?<currentValue>.*?)\"\\n"
      ],
      "depNameTemplate": "codacy/codacy-coverage-reporter",
      "datasourceTemplate": "github-releases"
    },
    {
      "fileMatch": [
        "^docker-compose\\.yml"
      ],
      "matchStrings": [
        "image: \\$\\{\\w+:-(?<depName>.*?):(?<currentValue>.*?)\\}"
      ],
      "datasourceTemplate": "docker"
    }
  ],
  "packageRules": [
    {
      "matchFiles": [
        ".docker-compose.yml"
      ],
      "labels": ["dependencies", "docker"]
    },
    {
      "matchFiles": [
        "\\.gitlab-ci\\.yml"
      ],
      "groupName": "gitlab-ci"
    }
  ]
}
